<?xml version="1.0" encoding="UTF-8"?>
<svg width="113px" height="99px" viewBox="0 0 113 99" version="1.1" xmlns="http://www.w3.org/2000/svg" xmlns:xlink="http://www.w3.org/1999/xlink">
    <title>open-folder-in-new-tab</title>
    <g id="Page-1" stroke="none" stroke-width="1" fill="none" fill-rule="evenodd">
        <g id="page_CA" transform="translate(-1139.000000, -2137.000000)">
            <g id="open-folder-in-new-tab" transform="translate(1133.000000, 2131.000000)">
                <rect id="Rectangle" fill="#707CC0" fill-rule="nonzero" x="41" y="10" width="69" height="21"></rect>
                <path d="M111,25.7213115 L44.1408056,25.7213115 L44.1408056,9 L14.8788611,9 C12.184125,9 10,11.1389344 10,13.7809016 L10.0154306,94 L111,94 L111,25.7213115 Z" id="Path" fill="#70BFFF" fill-rule="nonzero"></path>
                <rect id="Rectangle" fill="#2785BD" fill-rule="nonzero" x="43" y="11" width="34" height="15"></rect>
                <rect id="Rectangle" fill="#2B59A1" fill-rule="nonzero" x="75" y="11" width="34" height="15"></rect>
                <path d="M57,98.6774728 L57,53.2855789 C57,51.4710526 58.5147727,50 60.3832273,50 L77.1274545,50 C77.9123182,50 78.6732273,50.2654737 79.2791364,50.7498947 L84.249,54.7251578 C84.8549091,55.2095789 85.6144091,55.4736841 86.3992727,55.4736841 L117.792409,55.4736841 C118.458909,55.4736841 119,55.9991578 119,56.6464209 L119,98.7144202 C119,100.528946 117.485227,102 115.616773,102 L60.3973182,102 C58.5218182,102.001367 57,100.512525 57,98.6774728 Z" id="Path" fill="#EF8630" fill-rule="nonzero"></path>
                <path d="M57,62 L57,99.5475172 C57,101.454724 58.5218182,103 60.3973182,103 L115.616773,103 C117.485227,103 119,101.480172 119,99.6054828 L119,62 L57,62 Z" id="Path" fill="#FFC571" fill-rule="nonzero"></path>
                <path d="M112.484234,52.0849808 L110.32443,52.0849808 L110.349463,11.7730566 C110.349463,10.2409428 109.10476,9 107.568003,9 L11.7814604,9 C10.2447035,9 9,10.2409428 9,11.7730566 L9,91.0117631 C9,92.5424904 10.2447035,93.7848198 11.7814604,93.7848198 L53.4171411,93.6808301 L53.4171411,98.4352357 C53.4171411,100.404106 54.9942291,102 56.9384699,102 L112.484234,102 C114.425693,102 116,100.43045 116,98.4948564 L116,55.5901243 C116,53.6545308 114.425693,52.0849808 112.484234,52.0849808 Z" id="Path" stroke="#40396E" stroke-width="5" stroke-linecap="round" stroke-linejoin="round"></path>
            </g>
        </g>
    </g>
</svg>