<?xml version="1.0" encoding="UTF-8"?>
<svg width="79px" height="95px" viewBox="0 0 79 95" version="1.1" xmlns="http://www.w3.org/2000/svg" xmlns:xlink="http://www.w3.org/1999/xlink">
    <title>dossier-de-rangement</title>
    <g id="Page-1" stroke="none" stroke-width="1" fill="none" fill-rule="evenodd">
        <g id="page_CA" transform="translate(-1281.000000, -2141.000000)" fill-rule="nonzero">
            <g id="dossier-de-rangement" transform="translate(1274.000000, 2134.000000)">
                <polygon id="Path" fill="#707CC0" points="9 100 9 9 47 9 47 100"></polygon>
                <path d="M28.5,68 C22.701375,68 18,72.701375 18,78.5 C18,84.298625 22.701375,89 28.5,89 C34.298625,89 39,84.298625 39,78.5 C39,72.701375 34.298625,68 28.5,68 Z" id="Path" fill="#D9EEFF"></path>
                <path d="M28.5,71 C24.9107,71 22,73.9107 22,77.5 C22,81.0893 24.9107,84 28.5,84 C32.0893,84 35,81.0893 35,77.5 C35,73.9107 32.0893,71 28.5,71 Z" id="Path" fill="#40396E"></path>
                <polygon id="Path" fill="#D9EEFF" points="21 22 37 22 37 58 21 58"></polygon>
                <polygon id="Path" fill="#F4665C" points="46 100 46 9 84 9 84 100"></polygon>
                <path d="M63.5,68 C57.701375,68 53,72.701375 53,78.5 C53,84.298625 57.701375,89 63.5,89 C69.298625,89 74,84.298625 74,78.5 C74,72.701375 69.298625,68 63.5,68 Z" id="Path" fill="#D9EEFF"></path>
                <path d="M64.5,71 C60.9107,71 58,73.9107 58,77.5 C58,81.0893 60.9107,84 64.5,84 C68.0893,84 71,81.0893 71,77.5 C71,73.9107 68.0893,71 64.5,71 Z" id="Path" fill="#40396E"></path>
                <polygon id="Path" fill="#D9EEFF" points="56 22 72 22 72 58 56 58"></polygon>
                <path d="M84.0887097,102 L8.91129032,102 C7.85625806,102 7,101.138581 7,100.074324 L7,8.92567568 C7,7.86141892 7.85625806,7 8.91129032,7 L84.0887097,7 C85.1437419,7 86,7.86141892 86,8.92567568 L86,100.074324 C86,101.138581 85.1437419,102 84.0887097,102 Z M10.8225806,98.1486486 L82.1774194,98.1486486 L82.1774194,10.8513514 L10.8225806,10.8513514 L10.8225806,98.1486486 Z" id="Shape" fill="#40396E"></path>
            </g>
        </g>
    </g>
</svg>