<?xml version="1.0" encoding="UTF-8"?>
<svg width="99px" height="122px" viewBox="0 0 99 122" version="1.1" xmlns="http://www.w3.org/2000/svg" xmlns:xlink="http://www.w3.org/1999/xlink">
    <title>worker</title>
    <g id="Page-1" stroke="none" stroke-width="1" fill="none" fill-rule="evenodd">
        <g id="page_CA" transform="translate(-261.000000, -3202.000000)">
            <g id="worker" transform="translate(254.000000, 3198.000000)">
                <path d="M84.362378,67 L84.9766865,79.0115248 C85.445579,87.3829734 78.7831514,95.9128125 70.2614762,95.9128125 L39.26264,96 C30.7409649,96 24.7299417,87.4919577 25.1988341,79.1205091 L25,67" id="Path" fill="#40396E" fill-rule="nonzero"></path>
                <path d="M79.7991814,68.6752073 C81.9186043,70.6425638 86.0968539,70.0359026 88.8294522,66.933918 C91.8044352,63.5586497 92.5936281,58.6624361 90.5997258,56.0068626 C89.0054697,53.8778252 86.108396,53.827747 83.4926617,55.6162529 C84.2198156,50.9718608 83.7913142,46.5392279 83.7913142,42.8005352 C83.7913142,25.469198 71.9389935,15 56.3787648,15 C40.8185361,15 28.9662154,25.4677671 28.9662154,42.8005352 C28.9662154,46.6064757 28.6617919,51.1278186 29.5750626,55.8680745 C28.9662154,53.6159879 25.2583075,53.7833921 23.5904702,56.0082934 C21.5951252,58.6624361 22.3843181,63.5586497 25.3607438,66.9353488 C28.3371696,70.3120479 30.8951933,70.8929546 32.8905383,68.2316579 C32.8963094,68.2202114 32.9020804,68.208765 32.9136226,68.1987494 C34.740164,76.4988474 37.6559936,82.0589545 42.4921444,86.5473888 L42.4387621,96.2010281 L22.4088451,104.870274 C16.262663,107.030789 11.735264,112.050052 10.1294657,118.103786 C9.81927109,119.274185 10.0731979,120.521846 10.8191078,121.480485 C11.5650177,122.439125 12.7177875,123 13.9383673,123 L99.4467654,123 C100.902516,123 102.270258,122.308921 103.127261,121.142816 C103.984264,119.975279 104.226648,118.472934 103.780834,117.099361 C101.958621,111.497761 97.5971397,106.90917 91.7986642,104.870274 L70.8670186,95.4269627 L70.1009099,86.5488196 C74.5374146,81.1589783 76.9872309,76.4916934 79.7991814,68.6752073 Z" id="Path" fill="#FFC7A3" fill-rule="nonzero"></path>
                <path d="M34.2458101,37.0975036 C34.6850995,33.2240441 37.6953125,30.1244338 41.695007,30.1244338 C49.655508,30.1244338 62.3084846,30.1244338 70.2761872,30.1244338 C74.2701205,30.1244338 77.2688111,33.2240441 77.7253841,37.0975036 C79.3226693,50.598434 80.6002095,54 80.6002095,54 L89,54 C88.8991795,53.8412977 88.7868366,53.6868087 88.6687325,53.5505776 C87.801676,52.5632527 85.4453561,51.4158211 82.7448062,53.412942 C83.6565119,48.7656332 84.0727566,45.7264141 84.0727566,41.9905902 C84.0727566,24.9785471 71.5206006,14 55.9870374,14 C40.4534742,14 27.9013181,24.9771427 27.9013181,41.9905902 C27.9013181,45.7264141 28.3175628,48.7656332 29.2292685,53.412942 C26.5287186,51.4158211 24.1940031,52.5632527 23.3269466,53.5505776 C23.2088425,53.6882132 23.1022608,53.8412977 23,54 L31.3709846,54 C31.3709846,54 32.6758904,50.8512342 34.2458101,37.0975036 Z" id="Path" fill="#40396E" fill-rule="nonzero"></path>
                <path d="M56.8159348,87.9867709 C63.6770444,87.9867709 70,84.1052315 70,84.1052315 C70,84.1052315 66.843492,94 56.8159348,94 C46.8707336,94 43,84 43,84 C43,84 49.9548251,87.9867709 56.8159348,87.9867709 Z" id="Path" fill="#40396E" fill-rule="nonzero" opacity="0.35"></path>
                <path d="M30.7497179,56 C32.3879081,54.8633233 34.3313071,52.8995818 34.4846213,46.3891337 C34.4846213,46.3891337 62.88607,51.5894652 67,21.0568681 C67,21.0568681 67,16.7567042 55.6433953,16.0400103 C41.4036327,15.1384092 28,29.6571959 28,41.1242997 C28,52.5914034 30.7497179,56 30.7497179,56 Z" id="Path" fill="#40396E" fill-rule="nonzero"></path>
                <path d="M64.6814846,19.0398284 C64.6814846,19.0398284 58.7118664,43.710525 82.1089888,48 L85,44.3247697 L82.1308023,34.0873592 L75.5867628,20.1937308 L68.3156079,18 L64.6814846,19.0398284 Z" id="Path" fill="#40396E" fill-rule="nonzero"></path>
                <path d="M87.6925625,104.529301 L69.509625,97 C69.026625,100.39249 62.0360625,105.154197 55.105875,105.120869 C48.28925,105.094484 41.5286875,100.332778 41.0514375,97 L21.4324375,104.529301 C13.717375,107.152475 10,114.148531 10,122 L102,122 C102,114.148531 95.401875,107.152475 87.6925625,104.529301 Z" id="Path" fill="#739F4D" fill-rule="nonzero"></path>
                <polyline id="Path" stroke="#407845" stroke-width="15" points="40 96 55.9414481 105.606645 56 121"></polyline>
                <polyline id="Path" stroke="#407845" stroke-width="15" points="72 96 56 105.529387 56 121"></polyline>
                <path d="M39.6859514,95.0355413 L22.5006859,104.009004 C15.9705704,106.309235 11.2831608,111.897746 10.0499324,118.514111 C9.88864216,119.375632 10.1227272,120.264164 10.6851021,120.938027 C11.2474771,121.611889 12.0824755,122 12.963149,122 L98.258589,122 C99.4104586,122 100.49667,121.471146 101.206062,120.568397 C101.915454,119.664227 102.168094,118.485678 101.888334,117.372525 C100.353935,111.260847 95.8378074,106.1756 89.6873665,104.009004 L72.6077247,95" id="Path" stroke="#40396E" stroke-width="5" stroke-linecap="round" stroke-linejoin="round"></path>
                <path d="M73,95 C73,95 79.4959061,93.3614102 82.5868674,88.8748292 C86.6730974,82.9429352 84.3330309,69 84.3330309,69" id="Path" stroke="#40396E" stroke-width="5" stroke-linecap="round" stroke-linejoin="round"></path>
                <path d="M39,95 C39,95 32.0607411,93.6172178 29.213271,89.1306368 C25.4489345,83.1987428 27.6264919,69 27.6264919,69" id="Path" stroke="#40396E" stroke-width="5" stroke-linecap="round" stroke-linejoin="round"></path>
                <polygon id="Path" fill="#F9B84F" fill-rule="nonzero" points="34 121 27 121 27 104.078673 34 100"></polygon>
                <polygon id="Path" fill="#F9B84F" fill-rule="nonzero" points="77 120.975959 84 121 84 103.998354 77.0098 100"></polygon>
                <rect id="Rectangle" fill="#EF8630" fill-rule="nonzero" x="27" y="113" width="58" height="7"></rect>
                <rect id="Rectangle" fill="#40396E" fill-rule="nonzero" x="77" y="109" width="7" height="4"></rect>
                <rect id="Rectangle" fill="#40396E" fill-rule="nonzero" x="27" y="109" width="7" height="4"></rect>
                <path d="M80.8671165,49 L86.1151425,49 C87.6886951,49 88.9871611,47.7482007 88.9871611,46.1859324 L89,41.8464558 C89.0042649,40.3153762 87.7628117,39.0706652 86.2234668,39.0621592 L86.1750059,39.0621592 C86.1735806,22.3095965 72.3665116,10 55.482178,10 C38.5978444,10 24.8720186,22.3124318 24.8720186,39.0649945 L24.8050286,39.0649945 C23.2656836,39.0635769 22.0171038,40.3026172 22.0128279,41.8322792 L22,46.1717557 C22,47.734024 23.2756609,49 24.8506388,49 L31.6593896,49" id="Path" stroke="#40396E" stroke-width="5" fill="#EF8630" fill-rule="nonzero" stroke-linecap="round"></path>
                <path d="M59.2028571,42 L54.87,41.9985858 C53.3257143,41.9985858 52,40.761168 52,39.2310124 L52,10.7689876 C52,9.24024624 53.2528571,8 54.7971429,8 L59.2028571,8 C60.7471429,8 62,9.24024624 62,10.7689876 L62,39.2324266 C62,40.7597538 60.7471429,42 59.2028571,42 Z" id="Path" fill="#DD4F2C" fill-rule="nonzero"></path>
                <path d="M49,10 C49,8.34377447 50.655562,7 52.6993048,7 L60.3006952,7 C62.3429896,7 64,8.34259984 64,10" id="Path" stroke="#40396E" stroke-width="5"></path>
                <path d="M29.2464636,50.1082101 C29.4296951,51.2869792 29.6544399,52.5494308 29.9206982,53.9547197 C27.2380747,51.90017 24.9190512,53.0818247 24.0572906,54.0903431 C21.9057522,56.6282315 22.86056,63.1352676 25.8123047,66.5345087 C28.7640494,69.9337497 32.8939154,68.257214 32.8939154,68.257214 C32.9053673,68.2456716 33.6096634,80.5051585 42.9086613,85.5477508 L42.9086613,95.6343782 L22.8104576,104.741343 C15.1362076,107.476895 10,114.793343 10,123 L103,123 C103,114.793343 97.8637924,107.476895 90.1895424,104.741343 L70.2301938,95.6704483 L70.0927702,85.5477508 C79.3931996,80.5051585 80.0974957,68.2456716 80.1075161,68.257214 C80.1075161,68.257214 84.266012,69.9395209 87.2105992,66.5345087 C90.1609125,63.1410388 91.1228778,56.6282315 88.9656133,54.0903431 C88.1052842,53.0832675 85.7633568,51.90017 83.0807333,53.9547197 C83.3613065,52.4729623 83.5917774,51.1816547 83.7764403,50" id="Path" stroke="#40396E" stroke-width="5" stroke-linecap="round" stroke-linejoin="round"></path>
            </g>
        </g>
    </g>
</svg>