<?xml version="1.0" encoding="UTF-8"?>
<svg width="109px" height="123px" viewBox="0 0 109 123" version="1.1" xmlns="http://www.w3.org/2000/svg" xmlns:xlink="http://www.w3.org/1999/xlink">
    <title>planner</title>
    <g id="Page-1" stroke="none" stroke-width="1" fill="none" fill-rule="evenodd">
        <g id="page_CA" transform="translate(-710.000000, -1160.000000)" fill-rule="nonzero">
            <g id="planner" transform="translate(702.000000, 1153.000000)">
                <path d="M106.845359,126.906475 L17.5990858,126.906475 C13.4226627,126.906475 10.0358423,123.540154 10.0358423,119.389011 L10.0358423,30.6829319 C10.0358423,26.5317881 13.4226627,23.1654676 17.5990858,23.1654676 L106.845359,23.1654676 C111.021782,23.1654676 114.408602,26.5317881 114.408602,30.6829319 L114.408602,119.389011 C114.408602,123.540154 111.021782,126.906475 106.845359,126.906475 Z" id="Path" fill="#D9EEFF"></path>
                <path d="M114.408602,49.352518 L114.408602,32.1947626 C114.408602,27.2072518 111.021782,23.1654676 106.845359,23.1654676 L17.5990858,23.1654676 C13.4226627,23.1654676 10.0358423,27.2087482 10.0358423,32.1947626 L10.0358423,49.352518 L114.408602,49.352518 Z" id="Path" fill="#FF7575"></path>
                <path d="M108.136201,129.928058 L16.3082437,129.928058 C11.7424373,129.928058 8.02867384,126.200935 8.02867384,121.618705 L8.02867384,29.4604317 C8.02867384,24.8782014 11.7424373,21.1510791 16.3082437,21.1510791 L27.5985663,21.1510791 L27.5985663,25.6834532 L16.3082437,25.6834532 C14.2338351,25.6834532 12.5448029,27.3785612 12.5448029,29.4604317 L12.5448029,121.618705 C12.5448029,123.700576 14.2338351,125.395683 16.3082437,125.395683 L108.136201,125.395683 C110.210609,125.395683 111.899642,123.700576 111.899642,121.618705 L111.899642,29.4604317 C111.899642,27.3785612 110.210609,25.6834532 108.136201,25.6834532 L96.8458781,25.6834532 L96.8458781,21.1510791 L108.136201,21.1510791 C112.702007,21.1510791 116.415771,24.8782014 116.415771,29.4604317 L116.415771,121.618705 C116.415771,126.200935 112.702007,129.928058 108.136201,129.928058 Z" id="Path" fill="#40396E"></path>
                <rect id="Rectangle" fill="#40396E" x="42.1505376" y="21.1510791" width="39.1397849" height="4.02877698"></rect>
                <rect id="Rectangle" fill="#70BFFF" x="38.1362007" y="63.4532374" width="12.0430108" height="12.0863309"></rect>
                <rect id="Rectangle" fill="#70BFFF" x="56.2007168" y="63.4532374" width="12.0430108" height="12.0863309"></rect>
                <rect id="Rectangle" fill="#70BFFF" x="74.265233" y="63.4532374" width="12.0430108" height="12.0863309"></rect>
                <rect id="Rectangle" fill="#70BFFF" x="92.3297491" y="63.4532374" width="12.0430108" height="12.0863309"></rect>
                <rect id="Rectangle" fill="#70BFFF" x="20.0716846" y="81.5827338" width="12.0430108" height="12.0863309"></rect>
                <rect id="Rectangle" fill="#70BFFF" x="38.1362007" y="81.5827338" width="12.0430108" height="12.0863309"></rect>
                <rect id="Rectangle" fill="#70BFFF" x="56.2007168" y="81.5827338" width="12.0430108" height="12.0863309"></rect>
                <rect id="Rectangle" fill="#FF7575" x="74.265233" y="81.5827338" width="12.0430108" height="12.0863309"></rect>
                <rect id="Rectangle" fill="#70BFFF" x="92.3297491" y="81.5827338" width="12.0430108" height="12.0863309"></rect>
                <rect id="Rectangle" fill="#70BFFF" x="20.0716846" y="99.7122302" width="12.0430108" height="12.0863309"></rect>
                <rect id="Rectangle" fill="#70BFFF" x="38.1362007" y="99.7122302" width="12.0430108" height="12.0863309"></rect>
                <rect id="Rectangle" fill="#70BFFF" x="56.2007168" y="99.7122302" width="12.0430108" height="12.0863309"></rect>
                <rect id="Rectangle" fill="#70BFFF" x="74.265233" y="99.7122302" width="12.0430108" height="12.0863309"></rect>
                <path d="M30.609319,22.1582357 L30.609319,16.3718326 C30.609319,13.9182769 32.4398566,11.7185372 34.8815771,11.5901184 C37.4858781,11.4511238 39.6415771,13.5299987 39.6415771,16.1149949 L39.6415771,22.1582357 C39.6415771,23.827681 40.9888889,25.1798561 42.6523297,25.1798561 L44.1577061,25.1798561 L44.1577061,16.4307542 C44.1577061,11.8242939 40.8669534,7.71337938 36.3146953,7.12718503 C30.8065233,6.41710423 26.09319,10.7244241 26.09319,16.1149949 L26.09319,25.1798561 L27.5985663,25.1798561 C29.2620072,25.1798561 30.609319,23.827681 30.609319,22.1582357 Z" id="Path" fill="#40396E"></path>
                <path d="M84.8028674,22.1582357 L84.8028674,16.3718326 C84.8028674,13.9182769 86.633405,11.7185372 89.0751254,11.5901184 C91.6794265,11.4511238 93.8351254,13.5299987 93.8351254,16.1149949 L93.8351254,22.1582357 C93.8351254,23.827681 95.1824373,25.1798561 96.8458781,25.1798561 L98.3512545,25.1798561 L98.3512545,16.4307542 C98.3512545,11.8242939 95.0605018,7.71337938 90.5082437,7.12718503 C85.0000717,6.41710423 80.2867384,10.7244241 80.2867384,16.1149949 L80.2867384,25.1798561 L81.7921147,25.1798561 C83.4555556,25.1798561 84.8028674,23.827681 84.8028674,22.1582357 Z" id="Path" fill="#40396E"></path>
                <ellipse id="Oval" fill="#40396E" cx="34.6236559" cy="35.7553957" rx="7.52688172" ry="7.55395683"></ellipse>
                <ellipse id="Oval" fill="#40396E" cx="88.8172043" cy="35.7553957" rx="7.52688172" ry="7.55395683"></ellipse>
                <path d="M34.6236559,40.2877698 C32.1292473,40.2877698 30.1075269,38.2943733 30.1075269,35.834911 L30.1075269,16.5391897 C30.1075269,14.0797274 32.1292473,12.0863309 34.6236559,12.0863309 C37.1180645,12.0863309 39.1397849,14.0797274 39.1397849,16.5391897 L39.1397849,35.834911 C39.1397849,38.2943733 37.1180645,40.2877698 34.6236559,40.2877698 Z" id="Path" fill="#D9EEFF"></path>
                <path d="M88.8172043,40.2877698 C86.3227957,40.2877698 84.3010753,38.2943733 84.3010753,35.834911 L84.3010753,16.5391897 C84.3010753,14.0797274 86.3227957,12.0863309 88.8172043,12.0863309 C91.3116129,12.0863309 93.3333333,14.0797274 93.3333333,16.5391897 L93.3333333,35.834911 C93.3333333,38.2943733 91.3116129,40.2877698 88.8172043,40.2877698 Z" id="Path" fill="#D9EEFF"></path>
            </g>
        </g>
    </g>
</svg>