<?xml version="1.0" encoding="UTF-8"?>
<svg width="182px" height="142px" viewBox="0 0 182 142" version="1.1" xmlns="http://www.w3.org/2000/svg" xmlns:xlink="http://www.w3.org/1999/xlink">
    <title>transparence</title>
    <g id="Page-1" stroke="none" stroke-width="1" fill="none" fill-rule="evenodd">
        <g id="page_CA" transform="translate(-310.000000, -1842.000000)">
            <g id="transparence" transform="translate(303.000000, 1835.000000)">
                <g id="business-report" transform="translate(66.000000, 0.000000)">
                    <polygon id="Path" fill="#D9EEFF" fill-rule="nonzero" points="8 111 8 8 65.3333333 8 94 37.2297297 94 111"></polygon>
                    <path d="M67,11.210709 L67,33.2456343 C67,34.7674214 68.2927778,36 69.8888889,36 L93,36 L91.5555556,32.3463339 L69.8888889,11 L67,11.210709 Z" id="Path" fill="#70BFFF" fill-rule="nonzero"></path>
                    <circle id="Oval" fill="#70BFFF" fill-rule="nonzero" cx="52" cy="66" r="24"></circle>
                    <path d="M10.5,8.5 L68.1319134,8.5 L93.5,34.4201036 L93.5,108.5 L10.5,108.5 L10.5,8.5 Z" id="Path" stroke="#40396E" stroke-width="3"></path>
                    <path d="M52,43 L52,66 L76,66 C75.9730672,53.3222687 65.2481247,43.0501739 52,43 Z" id="Path" fill="#FFC571" fill-rule="nonzero"></path>
                    <path d="M76,67.0496617 C76,67.0455232 76,67.0427642 76,67.0386258 L52,67 L62.6874557,88 C70.5740609,84.1470801 76,76.2246601 76,67.0496617 Z" id="Path" fill="#FF7575" fill-rule="nonzero"></path>
                </g>
                <g id="bill" transform="translate(0.000000, 28.000000)" fill-rule="nonzero">
                    <polygon id="Path" fill="#D9EEFF" points="9 109 9 11.739726 15.1779661 9 22.0423729 11.739726 28.9067797 9 35.7711864 11.739726 42.6355932 9 49.5 11.739726 56.3644068 9 63.2288136 11.739726 70.0932203 9 76.9576271 11.739726 83.8220339 9 90 11.739726 90 37.3780822 90 109"></polygon>
                    <path d="M67.1,95 L76.9,95 C78.0592,95 79,95.896 79,97 L79,97 C79,98.104 78.0592,99 76.9,99 L67.1,99 C65.9408,99 65,98.104 65,97 L65,97 C65,95.8946667 65.9408,95 67.1,95 Z" id="Path" fill="#70BFFF"></path>
                    <path d="M43.0357143,95 L57.9642857,95 C59.088,95 60,95.896 60,97 L60,97 C60,98.104 59.088,99 57.9642857,99 L43.0357143,99 C41.912,99 41,98.104 41,97 L41,97 C41,95.8946667 41.912,95 43.0357143,95 Z" id="Path" fill="#70BFFF"></path>
                    <path d="M77.8571429,40 L72.1428571,40 C70.96,40 70,39.104 70,38 C70,36.896 70.96,36 72.1428571,36 L77.8571429,36 C79.04,36 80,36.896 80,38 C80,39.104 79.04,40 77.8571429,40 Z" id="Path" fill="#70BFFF"></path>
                    <path d="M54.9782609,40 L28.0217391,40 C26.9057391,40 26,39.104 26,38 C26,36.896 26.9057391,36 28.0217391,36 L54.9782609,36 C56.0942609,36 57,36.896 57,38 C57,39.104 56.0942609,40 54.9782609,40 Z" id="Path" fill="#70BFFF"></path>
                    <path d="M77.8571429,73 L72.1428571,73 C70.96,73 70,72.104 70,71 C70,69.896 70.96,69 72.1428571,69 L77.8571429,69 C79.04,69 80,69.896 80,71 C80,72.104 79.04,73 77.8571429,73 Z" id="Path" fill="#70BFFF"></path>
                    <path d="M53.9545455,73 L28.0454545,73 C26.9163636,73 26,72.104 26,71 C26,69.896 26.9163636,69 28.0454545,69 L53.9545455,69 C55.0836364,69 56,69.896 56,71 C56,72.104 55.0836364,73 53.9545455,73 Z" id="Path" fill="#70BFFF"></path>
                    <path d="M77.8571429,51 L72.1428571,51 C70.96,51 70,50.104 70,49 C70,47.896 70.96,47 72.1428571,47 L77.8571429,47 C79.04,47 80,47.896 80,49 C80,50.104 79.04,51 77.8571429,51 Z" id="Path" fill="#70BFFF"></path>
                    <path d="M41.9230769,51 L28.0769231,51 C26.9304615,51 26,50.104 26,49 C26,47.896 26.9304615,47 28.0769231,47 L41.9230769,47 C43.0695385,47 44,47.896 44,49 C44,50.104 43.0695385,51 41.9230769,51 Z" id="Path" fill="#70BFFF"></path>
                    <path d="M77.8571429,62 L72.1428571,62 C70.96,62 70,61.104 70,60 C70,58.896 70.96,58 72.1428571,58 L77.8571429,58 C79.04,58 80,58.896 80,60 C80,61.104 79.04,62 77.8571429,62 Z" id="Path" fill="#70BFFF"></path>
                    <path d="M49.9473684,62 L28.0526316,62 C26.9195789,62 26,61.104 26,60 C26,58.896 26.9195789,58 28.0526316,58 L49.9473684,58 C51.0804211,58 52,58.896 52,60 C52,61.104 51.0804211,62 49.9473684,62 Z" id="Path" fill="#70BFFF"></path>
                    <circle id="Oval" fill="#70BFFF" cx="20" cy="38" r="2"></circle>
                    <circle id="Oval" fill="#70BFFF" cx="20" cy="49" r="2"></circle>
                    <circle id="Oval" fill="#70BFFF" cx="20" cy="60" r="2"></circle>
                    <circle id="Oval" fill="#70BFFF" cx="20" cy="71" r="2"></circle>
                    <path d="M40.0294118,22 L58.9705882,22 C60.0908235,22 61,22.896 61,24 L61,24 C61,25.104 60.0908235,26 58.9705882,26 L40.0294118,26 C38.9091765,26 38,25.104 38,24 L38,24 C38,22.8946667 38.9091765,22 40.0294118,22 Z" id="Path" fill="#70BFFF"></path>
                    <g id="Group" transform="translate(18.000000, 84.000000)" fill="#40396E" opacity="0.35">
                        <path d="M49.5176991,2.11875 C49.5176991,1.08125 50.4367257,0.24375 51.5752212,0.24375 L51.5752212,0.24375 C52.7137168,0.24375 53.6327434,1.08125 53.6327434,2.11875 L53.6327434,2.11875 C53.6327434,3.15625 52.7137168,3.99375 51.5752212,3.99375 L51.5752212,3.99375 C50.4367257,3.99375 49.5176991,3.15625 49.5176991,2.11875 Z" id="Path"></path>
                        <path d="M57.7477876,2.11875 C57.7477876,1.08125 58.6668142,0.24375 59.8053097,0.24375 L59.8053097,0.24375 C60.9438053,0.24375 61.8628319,1.08125 61.8628319,2.11875 L61.8628319,2.11875 C61.8628319,3.15625 60.9438053,3.99375 59.8053097,3.99375 L59.8053097,3.99375 C58.6668142,3.99375 57.7477876,3.15625 57.7477876,2.11875 Z" id="Path"></path>
                        <path d="M41.2876106,2.11875 C41.2876106,1.08125 42.2066372,0.24375 43.3451327,0.24375 L43.3451327,0.24375 C44.4836283,0.24375 45.4026549,1.08125 45.4026549,2.11875 L45.4026549,2.11875 C45.4026549,3.15625 44.4836283,3.99375 43.3451327,3.99375 L43.3451327,3.99375 C42.2066372,3.99375 41.2876106,3.15625 41.2876106,2.11875 Z" id="Path"></path>
                        <path d="M33.0575221,2.11875 C33.0575221,1.08125 33.9765487,0.24375 35.1150442,0.24375 L35.1150442,0.24375 C36.2535398,0.24375 37.1725664,1.08125 37.1725664,2.11875 L37.1725664,2.11875 C37.1725664,3.15625 36.2535398,3.99375 35.1150442,3.99375 L35.1150442,3.99375 C33.9765487,3.99375 33.0575221,3.15625 33.0575221,2.11875 Z" id="Path"></path>
                        <path d="M24.8274336,2.11875 C24.8274336,1.08125 25.7464602,0.24375 26.8849558,0.24375 L26.8849558,0.24375 C28.0234513,0.24375 28.9424779,1.08125 28.9424779,2.11875 L28.9424779,2.11875 C28.9424779,3.15625 28.0234513,3.99375 26.8849558,3.99375 L26.8849558,3.99375 C25.7464602,3.99375 24.8274336,3.15625 24.8274336,2.11875 Z" id="Path"></path>
                        <path d="M16.5973451,2.11875 C16.5973451,1.08125 17.5163717,0.24375 18.6548673,0.24375 L18.6548673,0.24375 C19.7933628,0.24375 20.7123894,1.08125 20.7123894,2.11875 L20.7123894,2.11875 C20.7123894,3.15625 19.7933628,3.99375 18.6548673,3.99375 L18.6548673,3.99375 C17.5163717,3.99375 16.5973451,3.15625 16.5973451,2.11875 Z" id="Path"></path>
                        <path d="M8.36725664,2.11875 C8.36725664,1.08125 9.28628319,0.24375 10.4247788,0.24375 L10.4247788,0.24375 C11.5632743,0.24375 12.4823009,1.08125 12.4823009,2.11875 L12.4823009,2.11875 C12.4823009,3.15625 11.5632743,3.99375 10.4247788,3.99375 L10.4247788,3.99375 C9.28628319,3.99375 8.36725664,3.15625 8.36725664,2.11875 Z" id="Path"></path>
                        <path d="M0.137168142,2.11875 C0.137168142,1.08125 1.05619469,0.24375 2.19469027,0.24375 L2.19469027,0.24375 C3.33318584,0.24375 4.25221239,1.08125 4.25221239,2.11875 L4.25221239,2.11875 C4.25221239,3.15625 3.33318584,3.99375 2.19469027,3.99375 L2.19469027,3.99375 C1.05619469,3.99375 0.137168142,3.15625 0.137168142,2.11875 Z" id="Path"></path>
                    </g>
                    <path d="M89.9435484,111 L9.05645161,111 C7.92129032,111 7,110.080431 7,108.947391 L7,11.7905728 C7,10.9791081 7.47846774,10.2442742 8.22153226,9.91448833 L14.3908871,7.17767655 C14.8995161,6.95325798 15.4753226,6.94231074 15.9894355,7.14894003 L22.0806452,9.57922889 L28.1718548,7.14757162 C28.6612903,6.95188958 29.2083065,6.95188958 29.6977419,7.14757162 L35.7903226,9.57922889 L41.8815323,7.14757162 C42.3709677,6.95188958 42.9179839,6.95188958 43.4074194,7.14757162 L49.5,9.57922889 L55.5912097,7.14757162 C56.0806452,6.95188958 56.6276613,6.95188958 57.1170968,7.14757162 L63.2096774,9.57922889 L69.3008871,7.14757162 C69.7903226,6.95188958 70.3373387,6.95188958 70.8267742,7.14757162 L76.9193548,9.57922889 L83.0105645,7.14757162 C83.5233065,6.94231074 84.0991129,6.95052117 84.6091129,7.17630814 L90.7784677,9.91311993 C91.5215323,10.2442742 92,10.9791081 92,11.7905728 L92,108.947391 C92,110.080431 91.0787097,111 89.9435484,111 Z M10.1129032,107.894782 L89.1129032,107.894782 L89.1129032,11.8005132 L84.8384389,9.91160997 L78.6129568,12.3866761 C78.1093318,12.5872056 77.5464568,12.5872056 77.0428318,12.3866761 L70.7736175,9.89478232 L64.5058139,12.3866761 C64.0021889,12.5872056 63.4393139,12.5872056 62.9356889,12.3866761 L56.6664747,9.89478232 L50.3986711,12.3866761 C49.8950461,12.5872056 49.3321711,12.5872056 48.8285461,12.3866761 L42.5593318,9.89478232 L36.2915282,12.3866761 C35.7879032,12.5872056 35.2250282,12.5872056 34.7214032,12.3866761 L28.4521889,9.89478232 L22.1843854,12.3866761 C21.6807604,12.5872056 21.1178854,12.5872056 20.6142604,12.3866761 L14.3887782,9.91160997 L10.1129032,11.8005132 L10.1129032,107.894782 Z" id="Shape" fill="#40396E"></path>
                </g>
                <g id="search" transform="translate(119.000000, 79.000000)" fill-rule="nonzero">
                    <path d="M66.6570488,66.6570488 L66.6570488,66.6570488 C64.8068424,68.5072552 61.7860616,68.4364966 60.0249586,66.5015546 L35,39.0148954 L39.0148954,35 L66.5015546,60.0249586 C68.4364966,61.7860616 68.5072552,64.8068424 66.6570488,66.6570488 Z" id="Path" fill="#707CC0"></path>
                    <circle id="Oval" fill="#70BFFF" cx="28.5" cy="28.5" r="22.5"></circle>
                    <path d="M64.0981104,70 C64.0508459,70 64.0035814,70 63.9554416,69.9982494 C62.3256922,69.9606119 60.8237319,69.2761342 59.7252703,68.0699829 L42.5350024,49.1882011 C33.0838562,55.51218 20.1876542,54.3104052 12.0669156,46.1877028 C7.50939399,41.6309368 5,35.5721711 5,29.127402 C5,22.6826329 7.50939399,16.6238672 12.0669156,12.0671012 C16.623562,7.50945988 22.6821686,5 29.1276438,5 C35.573119,5 41.6317256,7.50945988 46.188372,12.0671012 C54.3091106,20.1871777 55.5108538,33.0837182 49.1879162,42.5351126 L68.0692023,59.7267072 L68.0692023,59.7267072 C69.2744466,60.8251976 69.9597816,62.3271973 69.9982934,63.9569895 C70.0368052,65.5867818 69.422367,67.1185414 68.2696387,68.2712999 C67.1510459,69.3890467 65.6744684,70 64.0981104,70 Z M42.7258109,46.1334348 C43.0837956,46.1334348 43.4391545,46.2796084 43.6973586,46.5623275 L61.6683658,66.3018947 C62.2775525,66.9714924 63.1125583,67.3522441 64.0175857,67.3732511 C64.9401184,67.4100133 65.7733737,67.0537698 66.4140701,66.4130567 C67.0547664,65.7723435 67.3952457,64.9224357 67.3742393,64.0173846 C67.3532329,63.1123335 66.9724912,62.2773057 66.302911,61.6672278 L46.5629868,43.6957488 C46.0640839,43.2405974 45.9905614,42.4825952 46.3931848,41.9407899 C52.7064944,33.4565923 51.820723,21.41171 44.3319281,13.9227185 C40.2706835,9.86136734 34.8711539,7.62499832 29.1276438,7.62499832 C23.3841337,7.62499832 17.9854793,9.86224263 13.9233595,13.9227185 C9.86211497,17.9840697 7.62580467,23.3837411 7.62580467,29.1265267 C7.62580467,34.8693123 9.86211497,40.2689837 13.9233595,44.3303349 C21.4121544,51.8184511 33.4575957,52.7051211 41.9415706,46.392521 C42.1770177,46.2192133 42.451852,46.1334348 42.7258109,46.1334348 Z" id="Shape" fill="#40396E"></path>
                    <path d="M11.3314816,30 C10.5956161,30 10,29.4145088 10,28.6930999 C10,23.6737322 11.9918964,18.9549515 15.6073127,15.4071534 C16.9254794,14.1133223 18.4149635,13.0207538 20.0340451,12.1581997 C20.6811451,11.8140493 21.4889106,12.0501626 21.8386464,12.6844448 C22.1892699,13.318727 21.9496032,14.112451 21.3025032,14.4557301 C19.9097735,15.1980494 18.6262252,16.1398887 17.4900276,17.2551101 C14.3770237,20.3106426 12.6629631,24.3724881 12.6629631,28.6930999 C12.6629631,29.4145088 12.067347,30 11.3314816,30 Z" id="Path" fill="#D9EEFF"></path>
                </g>
            </g>
        </g>
    </g>
</svg>