Page;Partie;Key;Label
Titre de la page;;application.name;Bordeaux DataViz
Header;Texte de description du logo;header.logo.description;Logo ville de Bordeaux
Header;Texte lien 1;header.lien1.texte;Explorer les comptes
Header;Texte lien 2;header.lien2.texte;Le budget par compétences de la Ville
Header;Texte lien 3;header.lien3.texte;La construction du budget
Header;Texte lien 4;header.lien4.texte;Le compte administratif
Header;Texte Données brutes de l'encart bleu;header.label.donnees.brutes;Voir les données brutes du budget > >
Header;Lien vers Données brutes de l'encart bleu;header.lien.donnees.brutes;https://opendata.bordeaux-metropole.fr/explore/?disjunctive.publisher&disjunctive.frequence&disjunctive.territoire&sort=title&q=%22budget+primitif%22&refine.publisher=Ville+de+Bordeaux&disjunctive.keyword
Header;Lien vers Données brutes de l'encart bleu;header.lien.open.data;https://opendata.bordeaux-metropole.fr/pages/accueil/
Introduction;;introduction.titre;Un peu perdu ?
Explorer les comptes;Pastille Dépenses;explorer.compte.depenses;Dépenses
Explorer les comptes;Pastille Recettes;explorer.compte.recettes;Recettes
Explorer les comptes;;explorer.compte.histogramme.titre;Evolution dans le temps
Explorer les comptes;;explorer.compte.histogramme.lien.texte;Voir les données en tableau
Explorer les comptes;Texte principal pour la recette;explorer.R;Retrouvez ici le détail des recettes de fonctionnement et d’investissement de la collectivité.
Explorer les comptes;Texte pour la partie Investissement de la recette ;explorer.R.I;Comment financer les investissements de la collectivité ? Souvent, l'épargne ne suffit pas pour financer les investissements de la commune qui fait alors appel à des subventions ou des emprunts bancaires.
Explorer les comptes;Texte pour la partie Fonctionnement de la recette;explorer.R.F;De quoi se composent les recettes de fonctionnement ? Principalement de la fiscalité locale, des dotations versées par l'Etat et des recettes des services publics offerts à la population.
Explorer les comptes;Texte princpiale pour la dépense;explorer.D;Retrouvez ici le détail des dépenses de fonctionnement et d’investissement de la collectivité. 
Explorer les comptes;Investissement pour l'année 2022;explorer.D.I;La section d'investissement retrace les dépenses ponctuelles qui modifient de façon durable la valeur du patrimoine de la commune : les acquisitions immobilières, les travaux nouveaux ou encore le remboursement des capitaux empruntés.
Explorer les comptes;Fonctionnement pour l'année 2022;explorer.D.F;Ce sont des dépenses récurrentes qui permettent de financer les services publics du quotidien : dépenses de personnel des crèches, écoles, équipements culturels et sportifs, subventions aux associations mais également les frais financiers à payer sur les emprunts de la commune.
Explorer les comptes;Exemple de clef dynamique D.I.20.211;explorer.D.I.20.211XXXX;Description du regroupement Terrain
Le budget par compétences;Texte princpial pour la recette;competences.R;L’exploration par compétence se fait au moyen de la présentation règlementaire des fonctions exercées par les collectivités (qu’elles soient obligatoires ou optionnelles). Ces fonctions se déclinent en sous-fonctions voire rubrique et forment le fil de déclinaison du budget ici. A noter la présence récurrente d’une sous-fonction « services communs » dans chacune des fonctions. Ces entités ont vocation à porter le cas échéant les crédits transversaux à la Fonction auxquels ils sont attachés. Retrouvez ici le détail des recettes présentées par compétence.
Le budget par compétences;Texte princpiale pour la dépense;competences.D;L’exploration par compétence se fait au moyen de la présentation règlementaire des fonctions exercées par les collectivités (qu’elles soient obligatoires ou optionnelles). Ces fonctions se déclinent en sous-fonctions voire rubrique et forment le fil de déclinaison du budget ici. A noter la présence récurrente d’une sous-fonction « services communs » dans chacune des fonctions. Ces entités ont vocation à porter le cas échéant les crédits transversaux à la Fonction auxquels ils sont attachés. Retrouvez ici le détail des dépenses présentées par compétence.
Le budget par compétences;Texte princpiale pour la dépense;competences.D.F-2.F-28XXX;Exemple d'explication d'un regroupement par compétence….
Le budget par compétences;Texte de la tooltip du fil d'Ariane;competences.label.tooltip.ariane;Les pourcentages ci-dessous correspondent à BUDGET
Tableau de détails;Tableau affiché sur les feuilles;details.telecharger.lien.texte;Télécharger les données
Tableau de détails;Tableau affiché sur les feuilles;details.colonne.un;Nature comptable
Tableau de détails;Tableau affiché sur les feuilles;details.colonne.deux;Politiques publiques
Tableau de détails;Tableau affiché sur les feuilles;details.colonne.trois;Budget
Données en tableau;Tableau dans la modale;tableau.titre.comptes;Détails des comptes
Données en tableau;Tableau dans la modale;tableau.titre.competences;Détails des compétences
Fil d'ariane;Texte de la tooltip du fil d'Ariane;breadcrumbs.tooltip.info;Pourcentage du regroupement par rapport au total (Recette ou Dépense totale)
Fil d'ariane;;breadcrumbs.label;Liste des sous-regroupements de : 
Mentions légales;;mentions.titre;Mentions légales
Pied de page;;pied.mentions.lien.texte;Mentions légales
Pied de page;;pied.mentions.lien;https://datalab.bordeaux-metropole.fr/mentions-legales
Pied de page;;pied.contact.lien.texte;Contact
Pied de page;;pied.contact.lien;https://opendata.bordeaux-metropole.fr/pages/contact/
Pied de page;;pied.gitlab.lien.texte;Consulter le GitLab 
Pied de page;;pied.gitlab.lien;https://gitlab.com/bordeaux-metropole-public/datalab/dataviz-finances
